%YAML 1.1
%TAG !u! tag:unity3d.com,2011:
--- !u!114 &11400000
MonoBehaviour:
  m_ObjectHideFlags: 0
  m_CorrespondingSourceObject: {fileID: 0}
  m_PrefabInstance: {fileID: 0}
  m_PrefabAsset: {fileID: 0}
  m_GameObject: {fileID: 0}
  m_Enabled: 1
  m_EditorHideFlags: 0
  m_Script: {fileID: 11500000, guid: 95e66c6366d904e98bc83428217d4fd7, type: 3}
  m_Name: PlayerTankController
  m_EditorClassIdentifier: 
  _data:
    _json: '{"graph":{"variables":{"Kind":"Flow","collection":{"$content":[{"name":"speed","value":{"$content":0.0,"$type":"System.Single"},"typeHandle":{"Identification":"System.Single,
      mscorlib, Version=4.0.0.0, Culture=neutral, PublicKeyToken=b77a5c561934e089","$version":"A"},"$version":"A"},{"name":"angularspeed","value":{"$content":0.0,"$type":"System.Single"},"typeHandle":{"Identification":"System.Single,
      mscorlib, Version=4.0.0.0, Culture=neutral, PublicKeyToken=b77a5c561934e089","$version":"A"},"$version":"A"}],"$version":"A"},"$version":"A"},"controlInputDefinitions":[],"controlOutputDefinitions":[],"valueInputDefinitions":[],"valueOutputDefinitions":[],"title":"PlayerTankController","summary":null,"pan":{"x":640.7532,"y":-487.9841},"zoom":1.0,"elements":[{"coroutine":false,"defaultValues":{},"position":{"x":-439.0,"y":-99.0},"guid":"2a8e51db-aa62-4d7a-8493-7a5b32031bb9","$version":"A","$type":"Unity.VisualScripting.Update","$id":"11"},{"chainable":false,"member":{"name":"GetKey","parameterTypes":["UnityEngine.KeyCode"],"targetType":"UnityEngine.Input","targetTypeName":"UnityEngine.Input","$version":"A"},"defaultValues":{"%key":{"$content":"W","$type":"UnityEngine.KeyCode"}},"position":{"x":-250.0,"y":-25.0},"guid":"5564c27e-ca6a-41cd-b290-4c42ac61e2a8","$version":"A","$type":"Unity.VisualScripting.InvokeMember","$id":"13"},{"defaultValues":{},"position":{"x":-63.0,"y":-12.0},"guid":"b479d321-db1d-485d-aff2-5a180afd16da","$version":"A","$type":"Unity.VisualScripting.If","$id":"16"},{"chainable":false,"member":{"name":"GetKey","parameterTypes":["UnityEngine.KeyCode"],"targetType":"UnityEngine.Input","targetTypeName":"UnityEngine.Input","$version":"A"},"defaultValues":{"%key":{"$content":"S","$type":"UnityEngine.KeyCode"}},"position":{"x":-126.0,"y":148.0},"guid":"07f4d7e0-f838-4fe9-bca4-84cf7f40a647","$version":"A","$type":"Unity.VisualScripting.InvokeMember","$id":"18"},{"defaultValues":{},"position":{"x":73.0,"y":69.0},"guid":"59e1b8a3-238f-4354-9bee-d37aa86ceeb5","$version":"A","$type":"Unity.VisualScripting.If","$id":"21"},{"member":{"name":"deltaTime","parameterTypes":null,"targetType":"UnityEngine.Time","targetTypeName":"UnityEngine.Time","$version":"A"},"defaultValues":{},"position":{"x":-52.0,"y":347.0},"guid":"c98ce69a-6511-469e-aeb7-80047f510c17","$version":"A","$type":"Unity.VisualScripting.GetMember","$id":"23"},{"specifyFallback":false,"kind":"Object","defaultValues":{"name":{"$content":"speed","$type":"System.String"},"object":null},"position":{"x":132.0,"y":241.0},"guid":"6f1c04d0-d652-4388-9de1-11f194614d52","$version":"A","$type":"Unity.VisualScripting.GetVariable","$id":"26"},{"defaultValues":{},"position":{"x":333.0,"y":332.0},"guid":"18e9ded9-8ac0-4f39-8271-2863669843d2","$version":"A","$type":"Unity.VisualScripting.GenericMultiply","$id":"28"},{"member":{"name":"back","parameterTypes":null,"targetType":"UnityEngine.Vector3","targetTypeName":"UnityEngine.Vector3","$version":"A"},"defaultValues":{},"position":{"x":299.0,"y":222.0},"guid":"f59e26d8-f22f-41d0-a903-3ef7fcdae68b","$version":"A","$type":"Unity.VisualScripting.GetMember","$id":"30"},{"defaultValues":{},"position":{"x":456.0,"y":264.0},"guid":"c1c74c30-26dc-4749-8f6e-fa055d5aa122","$version":"A","$type":"Unity.VisualScripting.GenericMultiply","$id":"33"},{"chainable":false,"member":{"name":"Translate","parameterTypes":["UnityEngine.Vector3"],"targetType":"UnityEngine.Transform","targetTypeName":"UnityEngine.Transform","$version":"A"},"defaultValues":{"target":null,"%translation":{"x":0.0,"y":0.0,"z":0.0,"$type":"UnityEngine.Vector3"}},"position":{"x":601.0,"y":64.0},"guid":"c4a8cd45-057a-4549-9f4a-b47db8339708","$version":"A","$type":"Unity.VisualScripting.InvokeMember","$id":"35"},{"member":{"name":"deltaTime","parameterTypes":null,"targetType":"UnityEngine.Time","targetTypeName":"UnityEngine.Time","$version":"A"},"defaultValues":{},"position":{"x":-370.0,"y":-211.0},"guid":"d7a1ac66-2ff0-43ae-9a98-193e4bc181a9","$version":"A","$type":"Unity.VisualScripting.GetMember","$id":"38"},{"defaultValues":{},"position":{"x":-149.0,"y":-174.0},"guid":"64b1fff6-3ca6-4d67-8197-496181689dda","$version":"A","$type":"Unity.VisualScripting.GenericMultiply","$id":"41"},{"specifyFallback":false,"kind":"Object","defaultValues":{"name":{"$content":"speed","$type":"System.String"},"object":null},"position":{"x":-350.0,"y":-342.0},"guid":"a5af0145-d63d-4c79-8fbc-716337414208","$version":"A","$type":"Unity.VisualScripting.GetVariable","$id":"43"},{"defaultValues":{},"position":{"x":12.0,"y":-193.0},"guid":"7f86ab1a-ed56-4522-aa76-85d0c15f3509","$version":"A","$type":"Unity.VisualScripting.GenericMultiply","$id":"45"},{"member":{"name":"forward","parameterTypes":null,"targetType":"UnityEngine.Vector3","targetTypeName":"UnityEngine.Vector3","$version":"A"},"defaultValues":{},"position":{"x":-141.0,"y":-311.0},"guid":"15703c01-9f1b-4d67-982a-858bfc313647","$version":"A","$type":"Unity.VisualScripting.GetMember","$id":"47"},{"chainable":false,"member":{"name":"Translate","parameterTypes":["UnityEngine.Vector3"],"targetType":"UnityEngine.Transform","targetTypeName":"UnityEngine.Transform","$version":"A"},"defaultValues":{"target":null,"%translation":{"x":0.0,"y":0.0,"z":0.0,"$type":"UnityEngine.Vector3"}},"position":{"x":172.0,"y":-134.0},"guid":"2a3141e5-6a53-49d7-ad73-21159a055552","$version":"A","$type":"Unity.VisualScripting.InvokeMember","$id":"50"},{"coroutine":false,"defaultValues":{},"position":{"x":-378.0,"y":-613.0},"guid":"2e8f2a40-90b9-4df6-9858-d814b0030e81","$version":"A","$type":"Unity.VisualScripting.Update","$id":"53"},{"chainable":false,"member":{"name":"GetKey","parameterTypes":["UnityEngine.KeyCode"],"targetType":"UnityEngine.Input","targetTypeName":"UnityEngine.Input","$version":"A"},"defaultValues":{"%key":{"$content":"D","$type":"UnityEngine.KeyCode"}},"position":{"x":-202.0,"y":-622.0},"guid":"361b419e-a2ba-4297-801c-e1593ebb7c52","$version":"A","$type":"Unity.VisualScripting.InvokeMember","$id":"55"},{"defaultValues":{},"position":{"x":-45.0,"y":-616.0},"guid":"685d9539-1763-4f77-bf93-a76f677e1744","$version":"A","$type":"Unity.VisualScripting.If","$id":"58"},{"defaultValues":{},"position":{"x":131.0,"y":-571.0},"guid":"810a4f5d-02c3-4c0b-961f-1662dd22f8f6","$version":"A","$type":"Unity.VisualScripting.If","$id":"60"},{"chainable":false,"member":{"name":"GetKey","parameterTypes":["UnityEngine.KeyCode"],"targetType":"UnityEngine.Input","targetTypeName":"UnityEngine.Input","$version":"A"},"defaultValues":{"%key":{"$content":"None","$type":"UnityEngine.KeyCode"}},"position":{"x":-81.0,"y":-441.0},"guid":"5ac2716f-8766-4b6f-9b62-134bb5140dbe","$version":"A","$type":"Unity.VisualScripting.InvokeMember","$id":"62"},{"member":{"name":"deltaTime","parameterTypes":null,"targetType":"UnityEngine.Time","targetTypeName":"UnityEngine.Time","$version":"A"},"defaultValues":{},"position":{"x":-364.0,"y":-733.0},"guid":"45781f55-fe8b-4ba0-92b0-114d97addd49","$version":"A","$type":"Unity.VisualScripting.GetMember","$id":"65"},{"specifyFallback":false,"kind":"Object","defaultValues":{"name":{"$content":"angularspeed","$type":"System.String"},"object":null},"position":{"x":-356.0,"y":-881.0},"guid":"085ac121-efa3-4d64-abe9-e998d0cac1f4","$version":"A","$type":"Unity.VisualScripting.GetVariable","$id":"68"},{"defaultValues":{},"position":{"x":-144.0,"y":-783.0},"guid":"6ca0db32-0c96-4f08-92a4-19374753230a","$version":"A","$type":"Unity.VisualScripting.GenericMultiply","$id":"70"},{"member":{"name":"up","parameterTypes":null,"targetType":"UnityEngine.Vector3","targetTypeName":"UnityEngine.Vector3","$version":"A"},"defaultValues":{},"position":{"x":-138.0,"y":-895.0},"guid":"f72ba12e-9d25-4aed-aa0d-43040b04289e","$version":"A","$type":"Unity.VisualScripting.GetMember","$id":"72"},{"defaultValues":{},"position":{"x":43.0,"y":-797.0},"guid":"9e4261d9-48fe-4149-96f8-e72b88fdcea6","$version":"A","$type":"Unity.VisualScripting.GenericMultiply","$id":"75"},{"chainable":false,"member":{"name":"Rotate","parameterTypes":["UnityEngine.Vector3"],"targetType":"UnityEngine.Transform","targetTypeName":"UnityEngine.Transform","$version":"A"},"defaultValues":{"target":null,"%eulers":{"x":0.0,"y":0.0,"z":0.0,"$type":"UnityEngine.Vector3"}},"position":{"x":240.0,"y":-757.0},"guid":"12ca8c68-91ab-4232-8fb2-5a5ec671dcaf","$version":"A","$type":"Unity.VisualScripting.InvokeMember","$id":"77"},{"specifyFallback":false,"kind":"Object","defaultValues":{"name":{"$content":"angularspeed","$type":"System.String"},"object":null},"position":{"x":209.0,"y":-428.0},"guid":"f2459dc0-7b58-4264-94d7-9f3a7cdf1529","$version":"A","$type":"Unity.VisualScripting.GetVariable","$id":"80"},{"member":{"name":"deltaTime","parameterTypes":null,"targetType":"UnityEngine.Time","targetTypeName":"UnityEngine.Time","$version":"A"},"defaultValues":{},"position":{"x":231.0,"y":-293.0},"guid":"540bbe0f-3ac5-4e8d-b66d-a2cdd30f68de","$version":"A","$type":"Unity.VisualScripting.GetMember","$id":"82"},{"defaultValues":{},"position":{"x":435.0,"y":-443.0},"guid":"198a6de7-5726-4439-bd3a-112a06469cff","$version":"A","$type":"Unity.VisualScripting.GenericMultiply","$id":"85"},{"defaultValues":{},"position":{"x":561.0,"y":-297.0},"guid":"729b0d9d-7f78-4480-8ef6-ff6a4562ec07","$version":"A","$type":"Unity.VisualScripting.GenericMultiply","$id":"87"},{"defaultValues":{},"position":{"x":708.0,"y":-428.0},"guid":"1a9cb2f6-5abe-4ce3-b96a-94f09bc0572f","$version":"A","$type":"Unity.VisualScripting.GenericMultiply","$id":"89"},{"member":{"name":"up","parameterTypes":null,"targetType":"UnityEngine.Vector3","targetTypeName":"UnityEngine.Vector3","$version":"A"},"defaultValues":{},"position":{"x":574.0,"y":-454.0},"guid":"6eed7e9b-c6ac-4dd5-9aa3-e5901cfe36bc","$version":"A","$type":"Unity.VisualScripting.GetMember","$id":"91"},{"chainable":false,"member":{"name":"Rotate","parameterTypes":["UnityEngine.Vector3"],"targetType":"UnityEngine.Transform","targetTypeName":"UnityEngine.Transform","$version":"A"},"defaultValues":{"target":null,"%eulers":{"x":0.0,"y":0.0,"z":0.0,"$type":"UnityEngine.Vector3"}},"position":{"x":859.0,"y":-601.0},"guid":"7aea6e09-b7eb-4e4f-a6f1-9c1b76562bb2","$version":"A","$type":"Unity.VisualScripting.InvokeMember","$id":"94"},{"sourceUnit":{"$ref":"11"},"sourceKey":"trigger","destinationUnit":{"$ref":"13"},"destinationKey":"enter","guid":"d1e86078-8e2c-4485-8fbc-98bcef434910","$type":"Unity.VisualScripting.ControlConnection"},{"sourceUnit":{"$ref":"13"},"sourceKey":"exit","destinationUnit":{"$ref":"16"},"destinationKey":"enter","guid":"326d9410-c913-40c9-8178-61ebc5d2bde6","$type":"Unity.VisualScripting.ControlConnection"},{"sourceUnit":{"$ref":"16"},"sourceKey":"ifFalse","destinationUnit":{"$ref":"21"},"destinationKey":"enter","guid":"88251fe0-7560-4262-a57d-bdede8b18851","$type":"Unity.VisualScripting.ControlConnection"},{"sourceUnit":{"$ref":"21"},"sourceKey":"ifTrue","destinationUnit":{"$ref":"35"},"destinationKey":"enter","guid":"55571bbe-d6d2-4b6a-9460-a29d3aa81de7","$type":"Unity.VisualScripting.ControlConnection"},{"sourceUnit":{"$ref":"16"},"sourceKey":"ifTrue","destinationUnit":{"$ref":"50"},"destinationKey":"enter","guid":"b8476f62-66d1-4c5f-9c3d-0675eb6a1738","$type":"Unity.VisualScripting.ControlConnection"},{"sourceUnit":{"$ref":"55"},"sourceKey":"exit","destinationUnit":{"$ref":"58"},"destinationKey":"enter","guid":"33511136-9084-4b2d-8d41-3583c9c37794","$type":"Unity.VisualScripting.ControlConnection"},{"sourceUnit":{"$ref":"53"},"sourceKey":"trigger","destinationUnit":{"$ref":"55"},"destinationKey":"enter","guid":"d60ad4e8-7a98-4f78-9945-63de97cd7166","$type":"Unity.VisualScripting.ControlConnection"},{"sourceUnit":{"$ref":"58"},"sourceKey":"ifFalse","destinationUnit":{"$ref":"60"},"destinationKey":"enter","guid":"84f97446-c98c-4e6c-93de-589439ba60a8","$type":"Unity.VisualScripting.ControlConnection"},{"sourceUnit":{"$ref":"58"},"sourceKey":"ifTrue","destinationUnit":{"$ref":"77"},"destinationKey":"enter","guid":"696e05b1-df90-4143-a312-d80ca76c2401","$type":"Unity.VisualScripting.ControlConnection"},{"sourceUnit":{"$ref":"60"},"sourceKey":"ifTrue","destinationUnit":{"$ref":"94"},"destinationKey":"enter","guid":"db6e7121-00c5-4025-af73-99a523564be0","$type":"Unity.VisualScripting.ControlConnection"},{"sourceUnit":{"$ref":"13"},"sourceKey":"result","destinationUnit":{"$ref":"16"},"destinationKey":"condition","guid":"4af780e8-8538-4930-94a9-6ea1da0e4288","$type":"Unity.VisualScripting.ValueConnection"},{"sourceUnit":{"$ref":"18"},"sourceKey":"result","destinationUnit":{"$ref":"21"},"destinationKey":"condition","guid":"6017daea-e4f7-442f-afce-3b8e94e40b11","$type":"Unity.VisualScripting.ValueConnection"},{"sourceUnit":{"$ref":"23"},"sourceKey":"value","destinationUnit":{"$ref":"28"},"destinationKey":"b","guid":"549426c8-61ba-42f1-b790-4a086fee8fdb","$type":"Unity.VisualScripting.ValueConnection"},{"sourceUnit":{"$ref":"26"},"sourceKey":"value","destinationUnit":{"$ref":"28"},"destinationKey":"a","guid":"45e92744-34df-4d43-8e0f-24b7284c42f2","$type":"Unity.VisualScripting.ValueConnection"},{"sourceUnit":{"$ref":"30"},"sourceKey":"value","destinationUnit":{"$ref":"33"},"destinationKey":"a","guid":"8bed62c8-e887-4148-82d0-c46be70e4076","$type":"Unity.VisualScripting.ValueConnection"},{"sourceUnit":{"$ref":"28"},"sourceKey":"product","destinationUnit":{"$ref":"33"},"destinationKey":"b","guid":"60f9a6b9-b57d-4a6a-bb79-584acb810794","$type":"Unity.VisualScripting.ValueConnection"},{"sourceUnit":{"$ref":"33"},"sourceKey":"product","destinationUnit":{"$ref":"35"},"destinationKey":"%translation","guid":"a8261550-b5b8-4945-be34-d578595d62d7","$type":"Unity.VisualScripting.ValueConnection"},{"sourceUnit":{"$ref":"38"},"sourceKey":"value","destinationUnit":{"$ref":"41"},"destinationKey":"b","guid":"b3243386-0de6-4172-ac81-880444235843","$type":"Unity.VisualScripting.ValueConnection"},{"sourceUnit":{"$ref":"43"},"sourceKey":"value","destinationUnit":{"$ref":"41"},"destinationKey":"a","guid":"7ced1bbf-2ca4-4d0d-bf05-f6b189fe4b3a","$type":"Unity.VisualScripting.ValueConnection"},{"sourceUnit":{"$ref":"41"},"sourceKey":"product","destinationUnit":{"$ref":"45"},"destinationKey":"b","guid":"e4294894-57a0-4242-ba79-8a5d7b9c922e","$type":"Unity.VisualScripting.ValueConnection"},{"sourceUnit":{"$ref":"47"},"sourceKey":"value","destinationUnit":{"$ref":"45"},"destinationKey":"a","guid":"8faf2391-410f-4756-89ba-6632db3fdbbf","$type":"Unity.VisualScripting.ValueConnection"},{"sourceUnit":{"$ref":"45"},"sourceKey":"product","destinationUnit":{"$ref":"50"},"destinationKey":"%translation","guid":"2f4573de-2f59-4528-95eb-da76fd3c39b3","$type":"Unity.VisualScripting.ValueConnection"},{"sourceUnit":{"$ref":"55"},"sourceKey":"result","destinationUnit":{"$ref":"58"},"destinationKey":"condition","guid":"31f4b9e7-3eb9-4fb4-99ba-5778655e57d3","$type":"Unity.VisualScripting.ValueConnection"},{"sourceUnit":{"$ref":"62"},"sourceKey":"result","destinationUnit":{"$ref":"60"},"destinationKey":"condition","guid":"795b8857-3d86-4c6a-bc95-eaf9f2ef5edd","$type":"Unity.VisualScripting.ValueConnection"},{"sourceUnit":{"$ref":"65"},"sourceKey":"value","destinationUnit":{"$ref":"70"},"destinationKey":"b","guid":"d6ad93ec-411e-447a-ab34-6e323c1aa98f","$type":"Unity.VisualScripting.ValueConnection"},{"sourceUnit":{"$ref":"68"},"sourceKey":"value","destinationUnit":{"$ref":"70"},"destinationKey":"a","guid":"1482e906-da13-4d49-8bbe-6c24d497ec56","$type":"Unity.VisualScripting.ValueConnection"},{"sourceUnit":{"$ref":"72"},"sourceKey":"value","destinationUnit":{"$ref":"75"},"destinationKey":"a","guid":"3a6e34f1-ba49-4a97-a587-018fdcab97b2","$type":"Unity.VisualScripting.ValueConnection"},{"sourceUnit":{"$ref":"70"},"sourceKey":"product","destinationUnit":{"$ref":"75"},"destinationKey":"b","guid":"f1db8f3a-a9e0-4807-af9a-0ce508b025b5","$type":"Unity.VisualScripting.ValueConnection"},{"sourceUnit":{"$ref":"75"},"sourceKey":"product","destinationUnit":{"$ref":"77"},"destinationKey":"%eulers","guid":"d58433d2-6e36-4fa1-9bc2-b55df31aab4a","$type":"Unity.VisualScripting.ValueConnection"},{"sourceUnit":{"$ref":"80"},"sourceKey":"value","destinationUnit":{"$ref":"85"},"destinationKey":"a","guid":"ca0e88a8-310c-457f-a51d-24d120032d63","$type":"Unity.VisualScripting.ValueConnection"},{"sourceUnit":{"$ref":"85"},"sourceKey":"product","destinationUnit":{"$ref":"87"},"destinationKey":"a","guid":"5c7b7c5d-d33b-4b63-95fc-817231f76b34","$type":"Unity.VisualScripting.ValueConnection"},{"sourceUnit":{"$ref":"82"},"sourceKey":"value","destinationUnit":{"$ref":"87"},"destinationKey":"b","guid":"f136d332-e1d2-44ab-a516-5cc64728bb61","$type":"Unity.VisualScripting.ValueConnection"},{"sourceUnit":{"$ref":"87"},"sourceKey":"product","destinationUnit":{"$ref":"89"},"destinationKey":"b","guid":"5247f1ca-a634-4608-9d89-3a05644becbf","$type":"Unity.VisualScripting.ValueConnection"},{"sourceUnit":{"$ref":"91"},"sourceKey":"value","destinationUnit":{"$ref":"89"},"destinationKey":"a","guid":"39d82678-2923-44e7-be15-11389c306bf1","$type":"Unity.VisualScripting.ValueConnection"},{"sourceUnit":{"$ref":"89"},"sourceKey":"product","destinationUnit":{"$ref":"94"},"destinationKey":"%eulers","guid":"0b5ad2f9-bfea-41cf-af26-87d0f6a3712d","$type":"Unity.VisualScripting.ValueConnection"}],"$version":"A"}}'
    _objectReferences: []
